%YAML 1.1
%TAG !u! tag:unity3d.com,2011:
--- !u!74 &7400000
AnimationClip:
  m_ObjectHideFlags: 0
  m_CorrespondingSourceObject: {fileID: 0}
  m_PrefabInternal: {fileID: 0}
  m_Name: PlayerBackWalking
  serializedVersion: 6
  m_Legacy: 0
  m_Compressed: 0
  m_UseHighQualityCurve: 1
  m_RotationCurves: []
  m_CompressedRotationCurves: []
  m_EulerCurves: []
  m_PositionCurves: []
  m_ScaleCurves: []
  m_FloatCurves: []
  m_PPtrCurves:
  - curve:
    - time: 0
      value: {fileID: 21300000, guid: 06a8ed52c22467d4397edf6804bb4a2e, type: 3}
    - time: 0.083333336
      value: {fileID: 21300000, guid: 1277e36ce371a6e40bb73f16708ef9af, type: 3}
    - time: 0.16666667
      value: {fileID: 21300000, guid: ca4b6cdd054ad754a9581c405cbbc220, type: 3}
    - time: 0.25
      value: {fileID: 21300000, guid: 0a91c11dbf2c98c439918262e2bbfb87, type: 3}
    - time: 0.33333334
      value: {fileID: 21300000, guid: c621f6c567cf8e641bb86b3483b2d632, type: 3}
    - time: 0.41666666
      value: {fileID: 21300000, guid: 9f9028d728b994e46a71b8a76fa2837a, type: 3}
    - time: 0.5
      value: {fileID: 21300000, guid: a7a48b2e26c3e2e44a5ce44f96eaea90, type: 3}
    - time: 0.5833333
      value: {fileID: 21300000, guid: 980911a3eb27e0e47a560824f4fc8133, type: 3}
    - time: 0.6666667
      value: {fileID: 21300000, guid: e41db0d3489a154409b67bc165d8c168, type: 3}
    - time: 0.75
      value: {fileID: 21300000, guid: 89361cacfe6f6e740a75e511c4daaa65, type: 3}
    - time: 0.8333333
      value: {fileID: 21300000, guid: fbcfb038ac5ffb6449fc203943036dec, type: 3}
    - time: 0.9166667
      value: {fileID: 21300000, guid: f574dad7b8ca67a40bca294887cd4423, type: 3}
    - time: 1
      value: {fileID: 21300000, guid: d48ce417f77af9145b7936c94ea969ca, type: 3}
    - time: 1.0833334
      value: {fileID: 21300000, guid: e0b23ef897ed39348aa4ca3001933c00, type: 3}
    - time: 1.1666666
      value: {fileID: 21300000, guid: c0ef6dd99af31904ebc515371d4a3e9a, type: 3}
    - time: 1.25
      value: {fileID: 21300000, guid: e29f97eb55312ba4395a0cf3df240939, type: 3}
    - time: 1.3333334
      value: {fileID: 21300000, guid: 8543fa1c2f90e584195b8d4134eace91, type: 3}
    - time: 1.4166666
      value: {fileID: 21300000, guid: b6a87fc97a383b74a84568a79db5ffa7, type: 3}
    attribute: m_Sprite
    path: 
    classID: 212
    script: {fileID: 0}
  m_SampleRate: 12
  m_WrapMode: 0
  m_Bounds:
    m_Center: {x: 0, y: 0, z: 0}
    m_Extent: {x: 0, y: 0, z: 0}
  m_ClipBindingConstant:
    genericBindings:
    - serializedVersion: 2
      path: 0
      attribute: 0
      script: {fileID: 0}
      typeID: 212
      customType: 23
      isPPtrCurve: 1
    pptrCurveMapping:
    - {fileID: 21300000, guid: 06a8ed52c22467d4397edf6804bb4a2e, type: 3}
    - {fileID: 21300000, guid: 1277e36ce371a6e40bb73f16708ef9af, type: 3}
    - {fileID: 21300000, guid: ca4b6cdd054ad754a9581c405cbbc220, type: 3}
    - {fileID: 21300000, guid: 0a91c11dbf2c98c439918262e2bbfb87, type: 3}
    - {fileID: 21300000, guid: c621f6c567cf8e641bb86b3483b2d632, type: 3}
    - {fileID: 21300000, guid: 9f9028d728b994e46a71b8a76fa2837a, type: 3}
    - {fileID: 21300000, guid: a7a48b2e26c3e2e44a5ce44f96eaea90, type: 3}
    - {fileID: 21300000, guid: 980911a3eb27e0e47a560824f4fc8133, type: 3}
    - {fileID: 21300000, guid: e41db0d3489a154409b67bc165d8c168, type: 3}
    - {fileID: 21300000, guid: 89361cacfe6f6e740a75e511c4daaa65, type: 3}
    - {fileID: 21300000, guid: fbcfb038ac5ffb6449fc203943036dec, type: 3}
    - {fileID: 21300000, guid: f574dad7b8ca67a40bca294887cd4423, type: 3}
    - {fileID: 21300000, guid: d48ce417f77af9145b7936c94ea969ca, type: 3}
    - {fileID: 21300000, guid: e0b23ef897ed39348aa4ca3001933c00, type: 3}
    - {fileID: 21300000, guid: c0ef6dd99af31904ebc515371d4a3e9a, type: 3}
    - {fileID: 21300000, guid: e29f97eb55312ba4395a0cf3df240939, type: 3}
    - {fileID: 21300000, guid: 8543fa1c2f90e584195b8d4134eace91, type: 3}
    - {fileID: 21300000, guid: b6a87fc97a383b74a84568a79db5ffa7, type: 3}
  m_AnimationClipSettings:
    serializedVersion: 2
    m_AdditiveReferencePoseClip: {fileID: 0}
    m_AdditiveReferencePoseTime: 0
    m_StartTime: 0
    m_StopTime: 1.5
    m_OrientationOffsetY: 0
    m_Level: 0
    m_CycleOffset: 0
    m_HasAdditiveReferencePose: 0
    m_LoopTime: 1
    m_LoopBlend: 0
    m_LoopBlendOrientation: 0
    m_LoopBlendPositionY: 0
    m_LoopBlendPositionXZ: 0
    m_KeepOriginalOrientation: 0
    m_KeepOriginalPositionY: 1
    m_KeepOriginalPositionXZ: 0
    m_HeightFromFeet: 0
    m_Mirror: 0
  m_EditorCurves: []
  m_EulerEditorCurves: []
  m_HasGenericRootTransform: 0
  m_HasMotionFloatCurves: 0
  m_GenerateMotionCurves: 0
  m_Events: []
