%YAML 1.1
%TAG !u! tag:unity3d.com,2011:
--- !u!74 &7400000
AnimationClip:
  m_ObjectHideFlags: 0
  m_CorrespondingSourceObject: {fileID: 0}
  m_PrefabInternal: {fileID: 0}
  m_Name: PlayerLeftIdle
  serializedVersion: 6
  m_Legacy: 0
  m_Compressed: 0
  m_UseHighQualityCurve: 1
  m_RotationCurves: []
  m_CompressedRotationCurves: []
  m_EulerCurves: []
  m_PositionCurves: []
  m_ScaleCurves: []
  m_FloatCurves: []
  m_PPtrCurves:
  - curve:
    - time: 0
      value: {fileID: 21300000, guid: 90d95d739f10dbb479dddc45bd31186b, type: 3}
    - time: 0.083333336
      value: {fileID: 21300000, guid: d4e5697e9651f834593157978ee5a08c, type: 3}
    - time: 0.16666667
      value: {fileID: 21300000, guid: 6a380d95d8edfb1479d79c5fc5b9f40e, type: 3}
    - time: 0.25
      value: {fileID: 21300000, guid: 15a1824ed295ca6408ee0edc46aadd7b, type: 3}
    - time: 0.33333334
      value: {fileID: 21300000, guid: 938b237eeb66d334586e3011c9f9c1e5, type: 3}
    - time: 0.41666666
      value: {fileID: 21300000, guid: f3a01ef1abbcf8b45ae5ccea2aa62d25, type: 3}
    - time: 0.5
      value: {fileID: 21300000, guid: e9d13f3d9290e7e4d9479a75b401f34a, type: 3}
    - time: 0.5833333
      value: {fileID: 21300000, guid: 9b6426daa5754c149abd8cc2bc89a7af, type: 3}
    - time: 0.6666667
      value: {fileID: 21300000, guid: 5c8b2fb5a12e48d46ae9a7ccd1032475, type: 3}
    - time: 0.75
      value: {fileID: 21300000, guid: 119b17ee992a23b439f1901f6c8e624e, type: 3}
    - time: 0.8333333
      value: {fileID: 21300000, guid: 262718ef7f2f3fe4faa4046150c4b5d3, type: 3}
    - time: 0.9166667
      value: {fileID: 21300000, guid: 17a525fbaa3ed254aba65421c1496c46, type: 3}
    attribute: m_Sprite
    path: 
    classID: 212
    script: {fileID: 0}
  m_SampleRate: 12
  m_WrapMode: 0
  m_Bounds:
    m_Center: {x: 0, y: 0, z: 0}
    m_Extent: {x: 0, y: 0, z: 0}
  m_ClipBindingConstant:
    genericBindings:
    - serializedVersion: 2
      path: 0
      attribute: 0
      script: {fileID: 0}
      typeID: 212
      customType: 23
      isPPtrCurve: 1
    pptrCurveMapping:
    - {fileID: 21300000, guid: 90d95d739f10dbb479dddc45bd31186b, type: 3}
    - {fileID: 21300000, guid: d4e5697e9651f834593157978ee5a08c, type: 3}
    - {fileID: 21300000, guid: 6a380d95d8edfb1479d79c5fc5b9f40e, type: 3}
    - {fileID: 21300000, guid: 15a1824ed295ca6408ee0edc46aadd7b, type: 3}
    - {fileID: 21300000, guid: 938b237eeb66d334586e3011c9f9c1e5, type: 3}
    - {fileID: 21300000, guid: f3a01ef1abbcf8b45ae5ccea2aa62d25, type: 3}
    - {fileID: 21300000, guid: e9d13f3d9290e7e4d9479a75b401f34a, type: 3}
    - {fileID: 21300000, guid: 9b6426daa5754c149abd8cc2bc89a7af, type: 3}
    - {fileID: 21300000, guid: 5c8b2fb5a12e48d46ae9a7ccd1032475, type: 3}
    - {fileID: 21300000, guid: 119b17ee992a23b439f1901f6c8e624e, type: 3}
    - {fileID: 21300000, guid: 262718ef7f2f3fe4faa4046150c4b5d3, type: 3}
    - {fileID: 21300000, guid: 17a525fbaa3ed254aba65421c1496c46, type: 3}
  m_AnimationClipSettings:
    serializedVersion: 2
    m_AdditiveReferencePoseClip: {fileID: 0}
    m_AdditiveReferencePoseTime: 0
    m_StartTime: 0
    m_StopTime: 1
    m_OrientationOffsetY: 0
    m_Level: 0
    m_CycleOffset: 0
    m_HasAdditiveReferencePose: 0
    m_LoopTime: 1
    m_LoopBlend: 0
    m_LoopBlendOrientation: 0
    m_LoopBlendPositionY: 0
    m_LoopBlendPositionXZ: 0
    m_KeepOriginalOrientation: 0
    m_KeepOriginalPositionY: 1
    m_KeepOriginalPositionXZ: 0
    m_HeightFromFeet: 0
    m_Mirror: 0
  m_EditorCurves: []
  m_EulerEditorCurves: []
  m_HasGenericRootTransform: 0
  m_HasMotionFloatCurves: 0
  m_GenerateMotionCurves: 0
  m_Events: []
