%YAML 1.1
%TAG !u! tag:unity3d.com,2011:
--- !u!74 &7400000
AnimationClip:
  m_ObjectHideFlags: 0
  m_CorrespondingSourceObject: {fileID: 0}
  m_PrefabInternal: {fileID: 0}
  m_Name: PlayerLeftSlashing
  serializedVersion: 6
  m_Legacy: 0
  m_Compressed: 0
  m_UseHighQualityCurve: 1
  m_RotationCurves: []
  m_CompressedRotationCurves: []
  m_EulerCurves: []
  m_PositionCurves: []
  m_ScaleCurves: []
  m_FloatCurves: []
  m_PPtrCurves:
  - curve:
    - time: 0
      value: {fileID: 21300000, guid: d0a17bb66ee696f4f8658b0b0fa04f8c, type: 3}
    - time: 0.083333336
      value: {fileID: 21300000, guid: 6b8b1e966c7fe6642aca06b71d630372, type: 3}
    - time: 0.16666667
      value: {fileID: 21300000, guid: 8afa307d6e18b3e40ad60982e2309e6a, type: 3}
    - time: 0.25
      value: {fileID: 21300000, guid: 5af27abe2a44c994d9bd9edf388c28e6, type: 3}
    - time: 0.33333334
      value: {fileID: 21300000, guid: 054a5d96919d3ae438335b2881fecb75, type: 3}
    - time: 0.41666666
      value: {fileID: 21300000, guid: 8372436a98a347b43b61608afac17d14, type: 3}
    - time: 0.5
      value: {fileID: 21300000, guid: c7d54c4e89e71ba40bc63c04fbee08af, type: 3}
    - time: 0.5833333
      value: {fileID: 21300000, guid: df10d6fb6878883478a3fb35242e7e69, type: 3}
    - time: 0.6666667
      value: {fileID: 21300000, guid: 1986f1c252821dd4ea6e3addbf16164d, type: 3}
    - time: 0.75
      value: {fileID: 21300000, guid: 8bd7204952ed4904f93ea19e430af1c6, type: 3}
    - time: 0.8333333
      value: {fileID: 21300000, guid: cdc8909c757dbdc41bb5726dbf51dbcb, type: 3}
    - time: 0.9166667
      value: {fileID: 21300000, guid: 716d7ac7317936d4aaf04c711594088c, type: 3}
    attribute: m_Sprite
    path: 
    classID: 212
    script: {fileID: 0}
  m_SampleRate: 12
  m_WrapMode: 0
  m_Bounds:
    m_Center: {x: 0, y: 0, z: 0}
    m_Extent: {x: 0, y: 0, z: 0}
  m_ClipBindingConstant:
    genericBindings:
    - serializedVersion: 2
      path: 0
      attribute: 0
      script: {fileID: 0}
      typeID: 212
      customType: 23
      isPPtrCurve: 1
    pptrCurveMapping:
    - {fileID: 21300000, guid: d0a17bb66ee696f4f8658b0b0fa04f8c, type: 3}
    - {fileID: 21300000, guid: 6b8b1e966c7fe6642aca06b71d630372, type: 3}
    - {fileID: 21300000, guid: 8afa307d6e18b3e40ad60982e2309e6a, type: 3}
    - {fileID: 21300000, guid: 5af27abe2a44c994d9bd9edf388c28e6, type: 3}
    - {fileID: 21300000, guid: 054a5d96919d3ae438335b2881fecb75, type: 3}
    - {fileID: 21300000, guid: 8372436a98a347b43b61608afac17d14, type: 3}
    - {fileID: 21300000, guid: c7d54c4e89e71ba40bc63c04fbee08af, type: 3}
    - {fileID: 21300000, guid: df10d6fb6878883478a3fb35242e7e69, type: 3}
    - {fileID: 21300000, guid: 1986f1c252821dd4ea6e3addbf16164d, type: 3}
    - {fileID: 21300000, guid: 8bd7204952ed4904f93ea19e430af1c6, type: 3}
    - {fileID: 21300000, guid: cdc8909c757dbdc41bb5726dbf51dbcb, type: 3}
    - {fileID: 21300000, guid: 716d7ac7317936d4aaf04c711594088c, type: 3}
  m_AnimationClipSettings:
    serializedVersion: 2
    m_AdditiveReferencePoseClip: {fileID: 0}
    m_AdditiveReferencePoseTime: 0
    m_StartTime: 0
    m_StopTime: 1
    m_OrientationOffsetY: 0
    m_Level: 0
    m_CycleOffset: 0
    m_HasAdditiveReferencePose: 0
    m_LoopTime: 1
    m_LoopBlend: 0
    m_LoopBlendOrientation: 0
    m_LoopBlendPositionY: 0
    m_LoopBlendPositionXZ: 0
    m_KeepOriginalOrientation: 0
    m_KeepOriginalPositionY: 1
    m_KeepOriginalPositionXZ: 0
    m_HeightFromFeet: 0
    m_Mirror: 0
  m_EditorCurves: []
  m_EulerEditorCurves: []
  m_HasGenericRootTransform: 0
  m_HasMotionFloatCurves: 0
  m_GenerateMotionCurves: 0
  m_Events: []
