%YAML 1.1
%TAG !u! tag:unity3d.com,2011:
--- !u!74 &7400000
AnimationClip:
  m_ObjectHideFlags: 0
  m_CorrespondingSourceObject: {fileID: 0}
  m_PrefabInternal: {fileID: 0}
  m_Name: EnemyFrontSlashing
  serializedVersion: 6
  m_Legacy: 0
  m_Compressed: 0
  m_UseHighQualityCurve: 1
  m_RotationCurves: []
  m_CompressedRotationCurves: []
  m_EulerCurves: []
  m_PositionCurves: []
  m_ScaleCurves: []
  m_FloatCurves: []
  m_PPtrCurves:
  - curve:
    - time: 0
      value: {fileID: 21300000, guid: bbcf5fb0fc95e8a4a804de5f01be65a6, type: 3}
    - time: 0.083333336
      value: {fileID: 21300000, guid: c3303214253687944a34d640d3b916e3, type: 3}
    - time: 0.16666667
      value: {fileID: 21300000, guid: 57cd92b4960cd16498914f2a45700f59, type: 3}
    - time: 0.25
      value: {fileID: 21300000, guid: 4f7ed58dfec7d0f46b293ab0799c096a, type: 3}
    - time: 0.33333334
      value: {fileID: 21300000, guid: fe377651b2a8425409226bbdfba202c3, type: 3}
    - time: 0.41666666
      value: {fileID: 21300000, guid: 79f7cbad25bf2e54a91be87e13d75cec, type: 3}
    - time: 0.5
      value: {fileID: 21300000, guid: 750cc49dba6945a4caf3114e02e25460, type: 3}
    - time: 0.5833333
      value: {fileID: 21300000, guid: 382f82716c1ec4a4c8660b22b48a35fc, type: 3}
    - time: 0.6666667
      value: {fileID: 21300000, guid: eaf0f9fc8c8cf594f8f9747dee4f8874, type: 3}
    - time: 0.75
      value: {fileID: 21300000, guid: 6ff28abe61674db4ea1f4f9d743ee9e8, type: 3}
    - time: 0.8333333
      value: {fileID: 21300000, guid: 733bb1a2cb36a1e4a9de83082c9b5e79, type: 3}
    - time: 0.9166667
      value: {fileID: 21300000, guid: 8da4f8480dbde0944b18cb847d004b55, type: 3}
    attribute: m_Sprite
    path: 
    classID: 212
    script: {fileID: 0}
  m_SampleRate: 12
  m_WrapMode: 0
  m_Bounds:
    m_Center: {x: 0, y: 0, z: 0}
    m_Extent: {x: 0, y: 0, z: 0}
  m_ClipBindingConstant:
    genericBindings:
    - serializedVersion: 2
      path: 0
      attribute: 0
      script: {fileID: 0}
      typeID: 212
      customType: 23
      isPPtrCurve: 1
    pptrCurveMapping:
    - {fileID: 21300000, guid: bbcf5fb0fc95e8a4a804de5f01be65a6, type: 3}
    - {fileID: 21300000, guid: c3303214253687944a34d640d3b916e3, type: 3}
    - {fileID: 21300000, guid: 57cd92b4960cd16498914f2a45700f59, type: 3}
    - {fileID: 21300000, guid: 4f7ed58dfec7d0f46b293ab0799c096a, type: 3}
    - {fileID: 21300000, guid: fe377651b2a8425409226bbdfba202c3, type: 3}
    - {fileID: 21300000, guid: 79f7cbad25bf2e54a91be87e13d75cec, type: 3}
    - {fileID: 21300000, guid: 750cc49dba6945a4caf3114e02e25460, type: 3}
    - {fileID: 21300000, guid: 382f82716c1ec4a4c8660b22b48a35fc, type: 3}
    - {fileID: 21300000, guid: eaf0f9fc8c8cf594f8f9747dee4f8874, type: 3}
    - {fileID: 21300000, guid: 6ff28abe61674db4ea1f4f9d743ee9e8, type: 3}
    - {fileID: 21300000, guid: 733bb1a2cb36a1e4a9de83082c9b5e79, type: 3}
    - {fileID: 21300000, guid: 8da4f8480dbde0944b18cb847d004b55, type: 3}
  m_AnimationClipSettings:
    serializedVersion: 2
    m_AdditiveReferencePoseClip: {fileID: 0}
    m_AdditiveReferencePoseTime: 0
    m_StartTime: 0
    m_StopTime: 1
    m_OrientationOffsetY: 0
    m_Level: 0
    m_CycleOffset: 0
    m_HasAdditiveReferencePose: 0
    m_LoopTime: 1
    m_LoopBlend: 0
    m_LoopBlendOrientation: 0
    m_LoopBlendPositionY: 0
    m_LoopBlendPositionXZ: 0
    m_KeepOriginalOrientation: 0
    m_KeepOriginalPositionY: 1
    m_KeepOriginalPositionXZ: 0
    m_HeightFromFeet: 0
    m_Mirror: 0
  m_EditorCurves: []
  m_EulerEditorCurves: []
  m_HasGenericRootTransform: 0
  m_HasMotionFloatCurves: 0
  m_GenerateMotionCurves: 0
  m_Events: []
