%YAML 1.1
%TAG !u! tag:unity3d.com,2011:
--- !u!74 &7400000
AnimationClip:
  m_ObjectHideFlags: 0
  m_CorrespondingSourceObject: {fileID: 0}
  m_PrefabInternal: {fileID: 0}
  m_Name: EnemyLeftSlashing
  serializedVersion: 6
  m_Legacy: 0
  m_Compressed: 0
  m_UseHighQualityCurve: 1
  m_RotationCurves: []
  m_CompressedRotationCurves: []
  m_EulerCurves: []
  m_PositionCurves: []
  m_ScaleCurves: []
  m_FloatCurves: []
  m_PPtrCurves:
  - curve:
    - time: 0
      value: {fileID: 21300000, guid: ed61e136798117c4eb456b83a2ef40bd, type: 3}
    - time: 0.083333336
      value: {fileID: 21300000, guid: 10177e4bc7ca3e946b538953df3a4c0d, type: 3}
    - time: 0.16666667
      value: {fileID: 21300000, guid: 730e14bac82a6b84e984da696deb6db0, type: 3}
    - time: 0.25
      value: {fileID: 21300000, guid: 75efa3459c7703549a13b70019c98326, type: 3}
    - time: 0.33333334
      value: {fileID: 21300000, guid: c85da01d0d3fa7149b101e3ad4873463, type: 3}
    - time: 0.41666666
      value: {fileID: 21300000, guid: e8a3fd2f4f878ed448b20ad112bdb8a8, type: 3}
    - time: 0.5
      value: {fileID: 21300000, guid: a20112619ebad1946851a167e50422c5, type: 3}
    - time: 0.5833333
      value: {fileID: 21300000, guid: b4f5d4c86a8934147afc145261c5f22a, type: 3}
    - time: 0.6666667
      value: {fileID: 21300000, guid: 4f020bf720bfe4a4180ecd98593d17dc, type: 3}
    - time: 0.75
      value: {fileID: 21300000, guid: 9e024a3bb66c18845b086a0e49ce4d80, type: 3}
    - time: 0.8333333
      value: {fileID: 21300000, guid: 949683913339a5b419237541bea8f4d3, type: 3}
    - time: 0.9166667
      value: {fileID: 21300000, guid: 495d39d371ea4874e9685020de2d3d45, type: 3}
    attribute: m_Sprite
    path: 
    classID: 212
    script: {fileID: 0}
  m_SampleRate: 12
  m_WrapMode: 0
  m_Bounds:
    m_Center: {x: 0, y: 0, z: 0}
    m_Extent: {x: 0, y: 0, z: 0}
  m_ClipBindingConstant:
    genericBindings:
    - serializedVersion: 2
      path: 0
      attribute: 0
      script: {fileID: 0}
      typeID: 212
      customType: 23
      isPPtrCurve: 1
    pptrCurveMapping:
    - {fileID: 21300000, guid: ed61e136798117c4eb456b83a2ef40bd, type: 3}
    - {fileID: 21300000, guid: 10177e4bc7ca3e946b538953df3a4c0d, type: 3}
    - {fileID: 21300000, guid: 730e14bac82a6b84e984da696deb6db0, type: 3}
    - {fileID: 21300000, guid: 75efa3459c7703549a13b70019c98326, type: 3}
    - {fileID: 21300000, guid: c85da01d0d3fa7149b101e3ad4873463, type: 3}
    - {fileID: 21300000, guid: e8a3fd2f4f878ed448b20ad112bdb8a8, type: 3}
    - {fileID: 21300000, guid: a20112619ebad1946851a167e50422c5, type: 3}
    - {fileID: 21300000, guid: b4f5d4c86a8934147afc145261c5f22a, type: 3}
    - {fileID: 21300000, guid: 4f020bf720bfe4a4180ecd98593d17dc, type: 3}
    - {fileID: 21300000, guid: 9e024a3bb66c18845b086a0e49ce4d80, type: 3}
    - {fileID: 21300000, guid: 949683913339a5b419237541bea8f4d3, type: 3}
    - {fileID: 21300000, guid: 495d39d371ea4874e9685020de2d3d45, type: 3}
  m_AnimationClipSettings:
    serializedVersion: 2
    m_AdditiveReferencePoseClip: {fileID: 0}
    m_AdditiveReferencePoseTime: 0
    m_StartTime: 0
    m_StopTime: 1
    m_OrientationOffsetY: 0
    m_Level: 0
    m_CycleOffset: 0
    m_HasAdditiveReferencePose: 0
    m_LoopTime: 1
    m_LoopBlend: 0
    m_LoopBlendOrientation: 0
    m_LoopBlendPositionY: 0
    m_LoopBlendPositionXZ: 0
    m_KeepOriginalOrientation: 0
    m_KeepOriginalPositionY: 1
    m_KeepOriginalPositionXZ: 0
    m_HeightFromFeet: 0
    m_Mirror: 0
  m_EditorCurves: []
  m_EulerEditorCurves: []
  m_HasGenericRootTransform: 0
  m_HasMotionFloatCurves: 0
  m_GenerateMotionCurves: 0
  m_Events: []
