%YAML 1.1
%TAG !u! tag:unity3d.com,2011:
--- !u!74 &7400000
AnimationClip:
  m_ObjectHideFlags: 0
  m_CorrespondingSourceObject: {fileID: 0}
  m_PrefabInternal: {fileID: 0}
  m_Name: PlayerFrontSlashing
  serializedVersion: 6
  m_Legacy: 0
  m_Compressed: 0
  m_UseHighQualityCurve: 1
  m_RotationCurves: []
  m_CompressedRotationCurves: []
  m_EulerCurves: []
  m_PositionCurves: []
  m_ScaleCurves: []
  m_FloatCurves: []
  m_PPtrCurves:
  - curve:
    - time: 0
      value: {fileID: 21300000, guid: bf93ca9caf0fc554d92f14e5b2c6c8c4, type: 3}
    - time: 0.083333336
      value: {fileID: 21300000, guid: c5493b71865c45144a8aafc2f01b4712, type: 3}
    - time: 0.16666667
      value: {fileID: 21300000, guid: f02ce882ac99458428350da28a1823b7, type: 3}
    - time: 0.25
      value: {fileID: 21300000, guid: 19988f9466b83dd43a30929e7e7bdac4, type: 3}
    - time: 0.33333334
      value: {fileID: 21300000, guid: 3f2359d13bd9de542b830f8113fd86d8, type: 3}
    - time: 0.41666666
      value: {fileID: 21300000, guid: af00d518bbdc542478827369c7c58049, type: 3}
    - time: 0.5
      value: {fileID: 21300000, guid: 45651ae4eda6c1149929ff8da919399d, type: 3}
    - time: 0.5833333
      value: {fileID: 21300000, guid: b69c0485b4ce9ea46b3f7cab36193b6f, type: 3}
    - time: 0.6666667
      value: {fileID: 21300000, guid: 78bdfbaef633efc41a6f8e7d3b619484, type: 3}
    - time: 0.75
      value: {fileID: 21300000, guid: f223719dd113c8948aedb471f276c83b, type: 3}
    - time: 0.8333333
      value: {fileID: 21300000, guid: fb25f543d371f9b4fa12ea1823c2d6db, type: 3}
    - time: 0.9166667
      value: {fileID: 21300000, guid: a9b56e09fbaea4d4dad81521f7addace, type: 3}
    attribute: m_Sprite
    path: 
    classID: 212
    script: {fileID: 0}
  m_SampleRate: 12
  m_WrapMode: 0
  m_Bounds:
    m_Center: {x: 0, y: 0, z: 0}
    m_Extent: {x: 0, y: 0, z: 0}
  m_ClipBindingConstant:
    genericBindings:
    - serializedVersion: 2
      path: 0
      attribute: 0
      script: {fileID: 0}
      typeID: 212
      customType: 23
      isPPtrCurve: 1
    pptrCurveMapping:
    - {fileID: 21300000, guid: bf93ca9caf0fc554d92f14e5b2c6c8c4, type: 3}
    - {fileID: 21300000, guid: c5493b71865c45144a8aafc2f01b4712, type: 3}
    - {fileID: 21300000, guid: f02ce882ac99458428350da28a1823b7, type: 3}
    - {fileID: 21300000, guid: 19988f9466b83dd43a30929e7e7bdac4, type: 3}
    - {fileID: 21300000, guid: 3f2359d13bd9de542b830f8113fd86d8, type: 3}
    - {fileID: 21300000, guid: af00d518bbdc542478827369c7c58049, type: 3}
    - {fileID: 21300000, guid: 45651ae4eda6c1149929ff8da919399d, type: 3}
    - {fileID: 21300000, guid: b69c0485b4ce9ea46b3f7cab36193b6f, type: 3}
    - {fileID: 21300000, guid: 78bdfbaef633efc41a6f8e7d3b619484, type: 3}
    - {fileID: 21300000, guid: f223719dd113c8948aedb471f276c83b, type: 3}
    - {fileID: 21300000, guid: fb25f543d371f9b4fa12ea1823c2d6db, type: 3}
    - {fileID: 21300000, guid: a9b56e09fbaea4d4dad81521f7addace, type: 3}
  m_AnimationClipSettings:
    serializedVersion: 2
    m_AdditiveReferencePoseClip: {fileID: 0}
    m_AdditiveReferencePoseTime: 0
    m_StartTime: 0
    m_StopTime: 1
    m_OrientationOffsetY: 0
    m_Level: 0
    m_CycleOffset: 0
    m_HasAdditiveReferencePose: 0
    m_LoopTime: 1
    m_LoopBlend: 0
    m_LoopBlendOrientation: 0
    m_LoopBlendPositionY: 0
    m_LoopBlendPositionXZ: 0
    m_KeepOriginalOrientation: 0
    m_KeepOriginalPositionY: 1
    m_KeepOriginalPositionXZ: 0
    m_HeightFromFeet: 0
    m_Mirror: 0
  m_EditorCurves: []
  m_EulerEditorCurves: []
  m_HasGenericRootTransform: 0
  m_HasMotionFloatCurves: 0
  m_GenerateMotionCurves: 0
  m_Events: []
