%YAML 1.1
%TAG !u! tag:unity3d.com,2011:
--- !u!74 &7400000
AnimationClip:
  m_ObjectHideFlags: 0
  m_CorrespondingSourceObject: {fileID: 0}
  m_PrefabInternal: {fileID: 0}
  m_Name: PlayerDying
  serializedVersion: 6
  m_Legacy: 0
  m_Compressed: 0
  m_UseHighQualityCurve: 1
  m_RotationCurves: []
  m_CompressedRotationCurves: []
  m_EulerCurves: []
  m_PositionCurves: []
  m_ScaleCurves: []
  m_FloatCurves: []
  m_PPtrCurves:
  - curve:
    - time: 0
      value: {fileID: 21300000, guid: 7f9b3cb3af6adc549ad1107e817d63bb, type: 3}
    - time: 0.083333336
      value: {fileID: 21300000, guid: 6d7febd9bffe91046bb454d3349ee4c7, type: 3}
    - time: 0.16666667
      value: {fileID: 21300000, guid: 0d14d5a9f78cfee4288217fa785ce364, type: 3}
    - time: 0.25
      value: {fileID: 21300000, guid: edc1d1bf0b4cb4f4b9815748797e519a, type: 3}
    - time: 0.33333334
      value: {fileID: 21300000, guid: bb47b2213b175454481b71759d4e9b3c, type: 3}
    - time: 0.41666666
      value: {fileID: 21300000, guid: 9cb7644177145a4459c8f3d8c76d47a2, type: 3}
    - time: 0.5
      value: {fileID: 21300000, guid: 75373519ba41e754182ebfdf2b4dec4b, type: 3}
    - time: 0.5833333
      value: {fileID: 21300000, guid: 5a053459f95ce24438565e6f60ebfc5b, type: 3}
    - time: 0.6666667
      value: {fileID: 21300000, guid: f18f53d44137dcc42bddfd1352282a4e, type: 3}
    - time: 0.75
      value: {fileID: 21300000, guid: 577665c92cea29c4688ad588fd23fe6b, type: 3}
    - time: 0.8333333
      value: {fileID: 21300000, guid: 29c6983acfe51f34fbf19850849731be, type: 3}
    - time: 0.9166667
      value: {fileID: 21300000, guid: 400895443c2139748b74bb428e7a48c0, type: 3}
    attribute: m_Sprite
    path: 
    classID: 212
    script: {fileID: 0}
  m_SampleRate: 12
  m_WrapMode: 0
  m_Bounds:
    m_Center: {x: 0, y: 0, z: 0}
    m_Extent: {x: 0, y: 0, z: 0}
  m_ClipBindingConstant:
    genericBindings:
    - serializedVersion: 2
      path: 0
      attribute: 0
      script: {fileID: 0}
      typeID: 212
      customType: 23
      isPPtrCurve: 1
    pptrCurveMapping:
    - {fileID: 21300000, guid: 7f9b3cb3af6adc549ad1107e817d63bb, type: 3}
    - {fileID: 21300000, guid: 6d7febd9bffe91046bb454d3349ee4c7, type: 3}
    - {fileID: 21300000, guid: 0d14d5a9f78cfee4288217fa785ce364, type: 3}
    - {fileID: 21300000, guid: edc1d1bf0b4cb4f4b9815748797e519a, type: 3}
    - {fileID: 21300000, guid: bb47b2213b175454481b71759d4e9b3c, type: 3}
    - {fileID: 21300000, guid: 9cb7644177145a4459c8f3d8c76d47a2, type: 3}
    - {fileID: 21300000, guid: 75373519ba41e754182ebfdf2b4dec4b, type: 3}
    - {fileID: 21300000, guid: 5a053459f95ce24438565e6f60ebfc5b, type: 3}
    - {fileID: 21300000, guid: f18f53d44137dcc42bddfd1352282a4e, type: 3}
    - {fileID: 21300000, guid: 577665c92cea29c4688ad588fd23fe6b, type: 3}
    - {fileID: 21300000, guid: 29c6983acfe51f34fbf19850849731be, type: 3}
    - {fileID: 21300000, guid: 400895443c2139748b74bb428e7a48c0, type: 3}
  m_AnimationClipSettings:
    serializedVersion: 2
    m_AdditiveReferencePoseClip: {fileID: 0}
    m_AdditiveReferencePoseTime: 0
    m_StartTime: 0
    m_StopTime: 1
    m_OrientationOffsetY: 0
    m_Level: 0
    m_CycleOffset: 0
    m_HasAdditiveReferencePose: 0
    m_LoopTime: 1
    m_LoopBlend: 0
    m_LoopBlendOrientation: 0
    m_LoopBlendPositionY: 0
    m_LoopBlendPositionXZ: 0
    m_KeepOriginalOrientation: 0
    m_KeepOriginalPositionY: 1
    m_KeepOriginalPositionXZ: 0
    m_HeightFromFeet: 0
    m_Mirror: 0
  m_EditorCurves: []
  m_EulerEditorCurves: []
  m_HasGenericRootTransform: 0
  m_HasMotionFloatCurves: 0
  m_GenerateMotionCurves: 0
  m_Events: []
