%YAML 1.1
%TAG !u! tag:unity3d.com,2011:
--- !u!74 &7400000
AnimationClip:
  m_ObjectHideFlags: 0
  m_CorrespondingSourceObject: {fileID: 0}
  m_PrefabInternal: {fileID: 0}
  m_Name: EnemyRightSlashing
  serializedVersion: 6
  m_Legacy: 0
  m_Compressed: 0
  m_UseHighQualityCurve: 1
  m_RotationCurves: []
  m_CompressedRotationCurves: []
  m_EulerCurves: []
  m_PositionCurves: []
  m_ScaleCurves: []
  m_FloatCurves: []
  m_PPtrCurves:
  - curve:
    - time: 0
      value: {fileID: 21300000, guid: d505622630bf5c54db57a57fb6b2fb91, type: 3}
    - time: 0.083333336
      value: {fileID: 21300000, guid: 890778802069ee3409c4e0793f301aa9, type: 3}
    - time: 0.16666667
      value: {fileID: 21300000, guid: b47f8004bd6d6ba4286fa15223982711, type: 3}
    - time: 0.25
      value: {fileID: 21300000, guid: f1cb23aa3c5cabd4587a3e98e6db776e, type: 3}
    - time: 0.33333334
      value: {fileID: 21300000, guid: ef9a895d0aa23d64b83b5a7cebd380b1, type: 3}
    - time: 0.41666666
      value: {fileID: 21300000, guid: 8dce07fafe2e90a4a95e76155113beb0, type: 3}
    - time: 0.5
      value: {fileID: 21300000, guid: 1bb704898ca53654ea8454f106b5f370, type: 3}
    - time: 0.5833333
      value: {fileID: 21300000, guid: 4a23c5137f6b5af46a09f0ee632edc85, type: 3}
    - time: 0.6666667
      value: {fileID: 21300000, guid: 369bc5f5d13666e4c84e54d434eb6a28, type: 3}
    - time: 0.75
      value: {fileID: 21300000, guid: 2b9b0c002cedf904a8c9cc67e943c5e7, type: 3}
    - time: 0.8333333
      value: {fileID: 21300000, guid: cae8ccb286cd0004785a62188aeec839, type: 3}
    - time: 0.9166667
      value: {fileID: 21300000, guid: 188e00ad636f4b94388fc5e0be074e24, type: 3}
    attribute: m_Sprite
    path: 
    classID: 212
    script: {fileID: 0}
  m_SampleRate: 12
  m_WrapMode: 0
  m_Bounds:
    m_Center: {x: 0, y: 0, z: 0}
    m_Extent: {x: 0, y: 0, z: 0}
  m_ClipBindingConstant:
    genericBindings:
    - serializedVersion: 2
      path: 0
      attribute: 0
      script: {fileID: 0}
      typeID: 212
      customType: 23
      isPPtrCurve: 1
    pptrCurveMapping:
    - {fileID: 21300000, guid: d505622630bf5c54db57a57fb6b2fb91, type: 3}
    - {fileID: 21300000, guid: 890778802069ee3409c4e0793f301aa9, type: 3}
    - {fileID: 21300000, guid: b47f8004bd6d6ba4286fa15223982711, type: 3}
    - {fileID: 21300000, guid: f1cb23aa3c5cabd4587a3e98e6db776e, type: 3}
    - {fileID: 21300000, guid: ef9a895d0aa23d64b83b5a7cebd380b1, type: 3}
    - {fileID: 21300000, guid: 8dce07fafe2e90a4a95e76155113beb0, type: 3}
    - {fileID: 21300000, guid: 1bb704898ca53654ea8454f106b5f370, type: 3}
    - {fileID: 21300000, guid: 4a23c5137f6b5af46a09f0ee632edc85, type: 3}
    - {fileID: 21300000, guid: 369bc5f5d13666e4c84e54d434eb6a28, type: 3}
    - {fileID: 21300000, guid: 2b9b0c002cedf904a8c9cc67e943c5e7, type: 3}
    - {fileID: 21300000, guid: cae8ccb286cd0004785a62188aeec839, type: 3}
    - {fileID: 21300000, guid: 188e00ad636f4b94388fc5e0be074e24, type: 3}
  m_AnimationClipSettings:
    serializedVersion: 2
    m_AdditiveReferencePoseClip: {fileID: 0}
    m_AdditiveReferencePoseTime: 0
    m_StartTime: 0
    m_StopTime: 1
    m_OrientationOffsetY: 0
    m_Level: 0
    m_CycleOffset: 0
    m_HasAdditiveReferencePose: 0
    m_LoopTime: 1
    m_LoopBlend: 0
    m_LoopBlendOrientation: 0
    m_LoopBlendPositionY: 0
    m_LoopBlendPositionXZ: 0
    m_KeepOriginalOrientation: 0
    m_KeepOriginalPositionY: 1
    m_KeepOriginalPositionXZ: 0
    m_HeightFromFeet: 0
    m_Mirror: 0
  m_EditorCurves: []
  m_EulerEditorCurves: []
  m_HasGenericRootTransform: 0
  m_HasMotionFloatCurves: 0
  m_GenerateMotionCurves: 0
  m_Events: []
